{"Hall":{"south":"Kitchen","east":"DiningRoom","item":"key"},
    "Kitchen":{"north":"Hall","item":"monster"},
    "DiningRoom":{"west":"Hall","south":"Garden","east":"DarkRoom","item":"potion"},
    "DarkRoom":{"west":"DiningRoom"},
    "Garden":{"north":"DiningRoom"}}

